﻿Build started 24/10/2015 20:45:15.
     1>Project "D:\Users\user-pc\Desktop\Magshimim\C++\FireWall_Project_YoavEldar\FireWall_Project\FireWall_Project.vcxproj" on node 2 (Build target(s)).
     1>Link:
         FireWall_Project.vcxproj -> D:\Users\user-pc\Desktop\Magshimim\C++\FireWall_Project_YoavEldar\Debug\FireWall_Project.exe
     1>Done Building Project "D:\Users\user-pc\Desktop\Magshimim\C++\FireWall_Project_YoavEldar\FireWall_Project\FireWall_Project.vcxproj" (Build target(s)).

Build succeeded.

Time Elapsed 00:00:00.60
